[
    {
        
        "Name":"Plug",
        "Cost":"400",
        "Quantity":"50"
    },
    {
       
        "Name":"Led",
        "Cost":"100",
        "Quantity":"30"
    },
    {
       
        "Name":"Laptop",
        "Cost":"44000",
        "Quantity":"5"
    },
    {
        
        "Name":"Mobile Phone",
        "Cost":"12500",
        "Quantity":"8"
    },
    {
        
        "Name":"Bed Sheet",
        "Cost":"500",
        "Quantity":"18"
    },
    {
        
        "Name":"Shoes",
        "Cost":"1200",
        "Quantity":"19"
    },
    {
        
        "Name":"Jeans",
        "Cost":"2500",
        "Quantity":"12"
    }
]